<svg width="12" height="12" viewBox="0 0 12 12" fill="none" xmlns="http://www.w3.org/2000/svg">
<path d="M11.2502 0.75852C11.1731 0.681267 11.0815 0.619977 10.9807 0.578159C10.8799 0.536341 10.7718 0.514816 10.6627 0.514816C10.5535 0.514816 10.4455 0.536341 10.3447 0.578159C10.2439 0.619977 10.1523 0.681267 10.0752 0.75852L6.00019 4.82519L1.92519 0.750186C1.84804 0.673035 1.75644 0.611835 1.65564 0.57008C1.55484 0.528326 1.4468 0.506836 1.33769 0.506836C1.22858 0.506836 1.12054 0.528326 1.01973 0.57008C0.91893 0.611835 0.827338 0.673035 0.750186 0.750186C0.673035 0.827338 0.611835 0.91893 0.57008 1.01973C0.528326 1.12054 0.506836 1.22858 0.506836 1.33769C0.506836 1.4468 0.528326 1.55484 0.57008 1.65564C0.611835 1.75644 0.673035 1.84804 0.750186 1.92519L4.82519 6.00019L0.750186 10.0752C0.673035 10.1523 0.611835 10.2439 0.57008 10.3447C0.528326 10.4455 0.506836 10.5536 0.506836 10.6627C0.506836 10.7718 0.528326 10.8798 0.57008 10.9806C0.611835 11.0814 0.673035 11.173 0.750186 11.2502C0.827338 11.3273 0.91893 11.3885 1.01973 11.4303C1.12054 11.472 1.22858 11.4935 1.33769 11.4935C1.4468 11.4935 1.55484 11.472 1.65564 11.4303C1.75644 11.3885 1.84804 11.3273 1.92519 11.2502L6.00019 7.17519L10.0752 11.2502C10.1523 11.3273 10.2439 11.3885 10.3447 11.4303C10.4455 11.472 10.5536 11.4935 10.6627 11.4935C10.7718 11.4935 10.8798 11.472 10.9806 11.4303C11.0814 11.3885 11.173 11.3273 11.2502 11.2502C11.3273 11.173 11.3885 11.0814 11.4303 10.9806C11.472 10.8798 11.4935 10.7718 11.4935 10.6627C11.4935 10.5536 11.472 10.4455 11.4303 10.3447C11.3885 10.2439 11.3273 10.1523 11.2502 10.0752L7.17519 6.00019L11.2502 1.92519C11.5669 1.60852 11.5669 1.07519 11.2502 0.75852Z" fill="white"/>
</svg>
